Suite/Test/Step Name,Browser,Description,Tag,Start time,End time,Duration,Status
Global_Header_Upper_Menu,,,,2020-02-20 12:15:13,2020-02-20 12:15:17,4.910s,FAILED
,,,,,,,
Test Cases/Global_Header/Global_Header_Upper_Menu,,"This test will measure the user-friendliness of web UI. 
The web’s key capabilities and functionalities such as its navigation.",,2020-02-20 12:15:13,2020-02-20 12:15:17,4.709s,FAILED
"openBrowser("""")",,,,2020-02-20 12:15:13,2020-02-20 12:15:17,4.400s,FAILED
