Suite/Test/Step Name,Browser,Description,Tag,Start time,End time,Duration,Status
Global_Header_Upper_Menu,Chrome 79.0.3945.130,,,2020-02-21 17:02:54,2020-02-21 17:05:19,2m - 24.583s,PASSED
,,,,,,,
Test Cases/Global_Header/Global_Header_Upper_Menu,Chrome 79.0.3945.130,"This test will measure the user-friendliness of web UI. 
The web’s key capabilities and functionalities such as its navigation.",,2020-02-21 17:02:54,2020-02-21 17:04:10,1m - 16.121s,PASSED
"openBrowser("""")",Chrome 79.0.3945.130,,,2020-02-21 17:02:55,2020-02-21 17:03:05,10.233s,PASSED
navigateToUrl(home_page_url),Chrome 79.0.3945.130,,,2020-02-21 17:03:05,2020-02-21 17:03:16,10.689s,PASSED
waitForPageLoad(5),Chrome 79.0.3945.130,,,2020-02-21 17:03:16,2020-02-21 17:03:16,0.373s,PASSED
"click(findTestObject(""Global_Header_Upper_Menu/button_No Thank You - Please Dont Show Again""))",Chrome 79.0.3945.130,,,2020-02-21 17:03:16,2020-02-21 17:03:21,4.274s,PASSED
maximizeWindow(),Chrome 79.0.3945.130,,,2020-02-21 17:03:21,2020-02-21 17:03:25,4.459s,PASSED
"executeJavaScript(""return document.getElementById('header-bar');"", null)",Chrome 79.0.3945.130,,,2020-02-21 17:03:25,2020-02-21 17:03:25,0.251s,PASSED
"if (header == ""header-bar"")",Chrome 79.0.3945.130,,,2020-02-21 17:03:25,2020-02-21 17:03:34,8.714s,PASSED
"click(findTestObject(""Global_Header_Upper_Menu/a_Y Locations""))",Chrome 79.0.3945.130,,,2020-02-21 17:03:34,2020-02-21 17:03:39,5.459s,PASSED
"verifyMatch(""Y Locations"", ""Y Locations"", false)",Chrome 79.0.3945.130,,,2020-02-21 17:03:39,2020-02-21 17:03:39,0.042s,PASSED
"click(findTestObject(""Global_Header_Upper_Menu/img_Skip to main content_img-responsive visible-lg""))",Chrome 79.0.3945.130,,,2020-02-21 17:03:39,2020-02-21 17:03:42,2.971s,PASSED
"click(findTestObject(""Global_Header_Upper_Menu/a_Contact Us""))",Chrome 79.0.3945.130,,,2020-02-21 17:03:42,2020-02-21 17:03:46,3.585s,PASSED
"verifyMatch(""Contact Us"", ""Contact Us"", false)",Chrome 79.0.3945.130,,,2020-02-21 17:03:46,2020-02-21 17:03:46,0.004s,PASSED
"click(findTestObject(""Global_Header_Upper_Menu/img_Skip to main content_img-responsive visible-lg (1)""))",Chrome 79.0.3945.130,,,2020-02-21 17:03:46,2020-02-21 17:03:50,3.762s,PASSED
"click(findTestObject(""Global_Header_Upper_Menu/a_Donate""))",Chrome 79.0.3945.130,,,2020-02-21 17:03:50,2020-02-21 17:03:53,3.110s,PASSED
"verifyMatch(""Donate Today"", ""Donate Today"", false)",Chrome 79.0.3945.130,,,2020-02-21 17:03:53,2020-02-21 17:03:53,0.011s,PASSED
"click(findTestObject(""Global_Header_Upper_Menu/img_Skip to main content_img-responsive visible-lg (2)""))",Chrome 79.0.3945.130,,,2020-02-21 17:03:53,2020-02-21 17:03:57,3.740s,PASSED
"click(findTestObject(""Global_Header_Upper_Menu/a_Search""))",Chrome 79.0.3945.130,,,2020-02-21 17:03:57,2020-02-21 17:04:01,4.010s,PASSED
"verifyMatch(""Search"", ""Search"", false)",Chrome 79.0.3945.130,,,2020-02-21 17:04:01,2020-02-21 17:04:01,0.004s,PASSED
"click(findTestObject(""Global_Header_Upper_Menu/img_Skip to main content_img-responsive visible-lg (3)""))",Chrome 79.0.3945.130,,,2020-02-21 17:04:01,2020-02-21 17:04:04,3.045s,PASSED
"click(findTestObject(""Global_Header_Upper_Menu/a_Log In""))",Chrome 79.0.3945.130,,,2020-02-21 17:04:04,2020-02-21 17:04:07,3.042s,PASSED
"verifyMatch(""My Y Login"", ""My Y Login"", false)",Chrome 79.0.3945.130,,,2020-02-21 17:04:07,2020-02-21 17:04:07,0.003s,PASSED
"click(findTestObject(""Global_Header_Upper_Menu/img_Skip to main content_img-responsive visible-lg (4)""))",Chrome 79.0.3945.130,,,2020-02-21 17:04:07,2020-02-21 17:04:10,2.926s,PASSED
closeBrowser(),Chrome 79.0.3945.130,,,2020-02-21 17:04:10,2020-02-21 17:04:10,0.728s,PASSED
,,,,,,,
Test Cases/Global_Header/Global_Header_Upper_Menu,Chrome 79.0.3945.130,"This test will measure the user-friendliness of web UI. 
The web’s key capabilities and functionalities such as its navigation.",,2020-02-21 17:04:10,2020-02-21 17:05:19,1m - 8.129s,PASSED
"openBrowser("""")",Chrome 79.0.3945.130,,,2020-02-21 17:04:10,2020-02-21 17:04:17,6.329s,PASSED
navigateToUrl(home_page_url),Chrome 79.0.3945.130,,,2020-02-21 17:04:17,2020-02-21 17:04:25,7.872s,PASSED
waitForPageLoad(5),Chrome 79.0.3945.130,,,2020-02-21 17:04:25,2020-02-21 17:04:25,0.089s,PASSED
"click(findTestObject(""Global_Header_Upper_Menu/button_No Thank You - Please Dont Show Again""))",Chrome 79.0.3945.130,,,2020-02-21 17:04:25,2020-02-21 17:04:25,0.535s,PASSED
maximizeWindow(),Chrome 79.0.3945.130,,,2020-02-21 17:04:25,2020-02-21 17:04:30,4.245s,PASSED
"executeJavaScript(""return document.getElementById('header-bar');"", null)",Chrome 79.0.3945.130,,,2020-02-21 17:04:30,2020-02-21 17:04:30,0.193s,PASSED
"if (header == ""header-bar"")",Chrome 79.0.3945.130,,,2020-02-21 17:04:30,2020-02-21 17:04:38,8.055s,PASSED
"click(findTestObject(""Global_Header_Upper_Menu/a_Y Locations""))",Chrome 79.0.3945.130,,,2020-02-21 17:04:38,2020-02-21 17:04:42,4.259s,PASSED
"verifyMatch(""Y Locations"", ""Y Locations"", false)",Chrome 79.0.3945.130,,,2020-02-21 17:04:42,2020-02-21 17:04:42,0.006s,PASSED
"click(findTestObject(""Global_Header_Upper_Menu/img_Skip to main content_img-responsive visible-lg""))",Chrome 79.0.3945.130,,,2020-02-21 17:04:42,2020-02-21 17:04:46,3.501s,PASSED
"click(findTestObject(""Global_Header_Upper_Menu/a_Contact Us""))",Chrome 79.0.3945.130,,,2020-02-21 17:04:46,2020-02-21 17:04:50,4.140s,PASSED
"verifyMatch(""Contact Us"", ""Contact Us"", false)",Chrome 79.0.3945.130,,,2020-02-21 17:04:50,2020-02-21 17:04:50,0.008s,PASSED
"click(findTestObject(""Global_Header_Upper_Menu/img_Skip to main content_img-responsive visible-lg (1)""))",Chrome 79.0.3945.130,,,2020-02-21 17:04:50,2020-02-21 17:04:53,3.734s,PASSED
"click(findTestObject(""Global_Header_Upper_Menu/a_Donate""))",Chrome 79.0.3945.130,,,2020-02-21 17:04:53,2020-02-21 17:04:57,3.701s,PASSED
"verifyMatch(""Donate Today"", ""Donate Today"", false)",Chrome 79.0.3945.130,,,2020-02-21 17:04:57,2020-02-21 17:04:57,0.008s,PASSED
"click(findTestObject(""Global_Header_Upper_Menu/img_Skip to main content_img-responsive visible-lg (2)""))",Chrome 79.0.3945.130,,,2020-02-21 17:04:57,2020-02-21 17:05:01,3.484s,PASSED
"click(findTestObject(""Global_Header_Upper_Menu/a_Search""))",Chrome 79.0.3945.130,,,2020-02-21 17:05:01,2020-02-21 17:05:08,7.341s,PASSED
"verifyMatch(""Search"", ""Search"", false)",Chrome 79.0.3945.130,,,2020-02-21 17:05:08,2020-02-21 17:05:08,0.005s,PASSED
"click(findTestObject(""Global_Header_Upper_Menu/img_Skip to main content_img-responsive visible-lg (3)""))",Chrome 79.0.3945.130,,,2020-02-21 17:05:08,2020-02-21 17:05:11,2.779s,PASSED
"click(findTestObject(""Global_Header_Upper_Menu/a_Log In""))",Chrome 79.0.3945.130,,,2020-02-21 17:05:11,2020-02-21 17:05:14,3.042s,PASSED
"verifyMatch(""My Y Login"", ""My Y Login"", false)",Chrome 79.0.3945.130,,,2020-02-21 17:05:14,2020-02-21 17:05:14,0.004s,PASSED
"click(findTestObject(""Global_Header_Upper_Menu/img_Skip to main content_img-responsive visible-lg (4)""))",Chrome 79.0.3945.130,,,2020-02-21 17:05:14,2020-02-21 17:05:18,3.993s,PASSED
closeBrowser(),Chrome 79.0.3945.130,,,2020-02-21 17:05:18,2020-02-21 17:05:19,0.720s,PASSED
